<?xml version="1.0" encoding="iso-8859-1"?>
<!-- Generator: Adobe Illustrator 18.0.0, SVG Export Plug-In . SVG Version: 6.00 Build 0)  -->
<!DOCTYPE svg PUBLIC "-//W3C//DTD SVG 1.1//EN" "http://www.w3.org/Graphics/SVG/1.1/DTD/svg11.dtd">
<svg version="1.1" id="Capa_1" xmlns="http://www.w3.org/2000/svg" xmlns:xlink="http://www.w3.org/1999/xlink" x="0px" y="0px"
	 viewBox="0 0 158 158" style="enable-background:new 0 0 158 158;" xml:space="preserve" fill="white">
<g>
	<path d="M147.767,73.283l9.967-0.816c-0.875-10.678-3.852-20.885-8.85-30.339l-8.84,4.674
		C144.405,55.051,147.003,63.961,147.767,73.283z"/>
	<path d="M13.553,100.92l-9.482,3.174c3.388,10.123,8.718,19.323,15.842,27.344l7.477-6.641
		C21.166,117.791,16.511,109.757,13.553,100.92z"/>
	<path d="M49.323,16.689l-4.307-9.025c-9.636,4.598-18.121,11-25.22,19.028l7.492,6.624C33.492,26.299,40.905,20.705,49.323,16.689z
		"/>
	<path d="M23.777,37.625l-7.998-6.003C9.342,40.199,4.791,49.81,2.255,60.187l9.715,2.374
		C14.183,53.504,18.155,45.114,23.777,37.625z"/>
	<path d="M24.321,136.021c7.742,7.424,16.729,13.104,26.71,16.884l3.541-9.352c-8.716-3.3-16.564-8.263-23.329-14.75L24.321,136.021
		z"/>
	<path d="M122.652,132.439l6.33,7.741c8.291-6.78,15.016-15.013,19.986-24.468l-8.852-4.653
		C135.774,119.32,129.898,126.513,122.652,132.439z"/>
	<path d="M148,78.827V79c0,9.386-1.85,18.484-5.499,27.039l9.199,3.923c4.18-9.803,6.3-20.22,6.3-30.962v-0.173H148z"/>
	<path d="M79,148c-6.516,0-12.962-0.906-19.16-2.694l-2.771,9.608C64.168,156.962,71.547,158,79,158
		c3.193,0,6.408-0.193,9.557-0.573l-1.199-9.928C84.606,147.832,81.794,148,79,148z"/>
	<path d="M92.84,146.613l1.994,9.799c10.473-2.131,20.252-6.306,29.068-12.406l-5.689-8.224
		C110.515,141.109,101.979,144.753,92.84,146.613z"/>
	<path d="M10,79c0-3.686,0.293-7.386,0.871-10.997l-9.875-1.58C0.335,70.555,0,74.786,0,79c0,6.417,0.772,12.805,2.297,18.983
		l9.709-2.395C10.675,90.192,10,84.611,10,79z"/>
	<path d="M79,10c0.891,0,1.778,0.017,2.661,0.05l0.377-9.993C81.03,0.019,80.018,0,79,0c-9.691,0-19.159,1.736-28.14,5.16
		l3.563,9.344C62.262,11.515,70.53,10,79,10z"/>
	<path d="M118.376,10.498c-9.276-5.342-19.37-8.688-30-9.946L87.2,10.482c9.278,1.098,18.089,4.019,26.186,8.682L118.376,10.498z"/>
	<path d="M137.253,42l8.436-5.37c-5.741-9.02-13.12-16.67-21.932-22.738l-5.672,8.236C125.786,27.432,132.235,34.118,137.253,42z"/>
	<path d="M79,23c-30.879,0-56,25.122-56,56s25.121,56,56,56s56-25.122,56-56S109.879,23,79,23z M79,129c-27.57,0-50-22.43-50-50
		s22.43-50,50-50s50,22.43,50,50S106.57,129,79,129z"/>
	<polygon points="89.04,72.76 68.96,72.76 68.96,52.039 56.8,52.039 56.8,105.961 68.96,105.961 68.96,83.4 89.04,83.4 
		89.04,105.961 101.2,105.961 101.2,52.039 89.04,52.039 	"/>
</g>
<g>
</g>
<g>
</g>
<g>
</g>
<g>
</g>
<g>
</g>
<g>
</g>
<g>
</g>
<g>
</g>
<g>
</g>
<g>
</g>
<g>
</g>
<g>
</g>
<g>
</g>
<g>
</g>
<g>
</g>
</svg>
